<svg version="1.1" xmlns="http://www.w3.org/2000/svg" xmlns:xlink="http://www.w3.org/1999/xlink" x="0px" y="0px" xml:space="preserve" viewBox="0 0 54.4 52.1">
	<path class="logo__letter" d="M27.2,19.8c-1.9,0-3.5-1.6-3.5-3.5V3.5c0-1.9,1.6-3.5,3.5-3.5c1.9,0,3.5,1.6,3.5,3.5v12.8	C30.7,18.3,29.1,19.8,27.2,19.8"/>
	<path class="logo__letter" d="M19,25.8c-0.6,1.8-2.6,2.8-4.4,2.2L2.4,24c-1.8-0.6-2.8-2.6-2.2-4.4c0.6-1.8,2.6-2.8,4.4-2.2l12.2,4	C18.6,22,19.6,23.9,19,25.8"/>
	<path class="logo__letter" d="M35.4,25.8c0.6,1.8,2.6,2.8,4.4,2.2l12.2-4c1.8-0.6,2.8-2.6,2.2-4.4c-0.6-1.8-2.6-2.8-4.4-2.2l-12.2,4	C35.8,22,34.8,23.9,35.4,25.8"/>
	<path class="logo__letter" d="M10.5,51.4c-1.6-1.1-1.9-3.3-0.8-4.9l7.5-10.4c1.1-1.6,3.3-1.9,4.9-0.8c1.6,1.1,1.9,3.3,0.8,4.9l-7.5,10.4	C14.2,52.2,12.1,52.6,10.5,51.4"/>
	<path class="logo__letter" d="M43.9,51.4c1.6-1.1,1.9-3.3,0.8-4.9l-7.5-10.4c-1.1-1.6-3.3-1.9-4.9-0.8c-1.6,1.1-1.9,3.3-0.8,4.9L39,50.7	C40.2,52.2,42.4,52.6,43.9,51.4"/>
</svg>
